<svg width="1260" height="355" viewBox="0 0 1260 355" fill="none" xmlns="http://www.w3.org/2000/svg">
<path d="M1259.05 307.585C1259.05 332.661 1248.36 354.821 1212.79 354.821C1193.15 354.821 1171.38 344.518 1171.38 320.414L1191.99 322.941C1192.96 332.272 1201.71 337.326 1212.98 337.326C1230.09 337.326 1237.86 327.412 1237.47 310.501V304.086C1231.64 311.861 1222.7 316.332 1212.01 316.332C1185.38 316.332 1168.08 295.922 1168.08 263.07C1168.08 230.219 1184.99 210.003 1211.62 210.003C1224.26 210.003 1233.59 216.418 1239.42 226.137V212.919H1259.05V307.585ZM1239.61 263.07C1239.61 239.55 1226.98 228.081 1214.34 228.081C1200.35 228.081 1189.65 239.55 1189.65 263.07C1189.65 286.785 1200.15 298.254 1214.34 298.254C1228.73 298.254 1239.61 286.785 1239.61 263.07Z" fill="#EEEEEE"/>
<path d="M1089.46 313.999H1067.89V212.919H1087.71V227.498C1095.1 215.057 1105.21 210.003 1118.43 210.003C1146.42 210.003 1154 227.886 1154 251.99V313.999H1132.42V252.768C1132.42 237.411 1127.17 228.275 1113.37 228.275C1099.57 228.275 1089.46 238.966 1089.46 258.988V313.999Z" fill="#EEEEEE"/>
<path d="M1047.79 196.008H1026.21V174.042H1047.79V196.008ZM1047.79 314H1026.21V212.919H1047.79V314Z" fill="#EEEEEE"/>
<path d="M973.09 313.999H951.513V212.919H971.34V230.413C977.755 216.806 985.725 210.003 998.943 210.003C1006.72 210.003 1012.16 211.558 1016.83 215.251L1011.97 234.496C1008.08 231.969 1004.19 230.219 998.165 230.219C981.448 230.219 973.09 243.243 973.09 262.876V313.999Z" fill="#EEEEEE"/>
<path d="M909.943 302.336C900.418 313.028 889.727 316.915 877.675 316.915C859.208 316.915 843.463 307.585 843.463 287.757C843.463 265.986 859.986 257.433 883.118 254.906C893.809 253.934 903.723 252.185 908.777 249.852V246.548C908.777 234.107 901.001 227.498 887.977 227.498C875.731 227.498 868.927 234.69 866.012 245.77L846.573 240.522C851.627 217.195 870.288 210.003 889.532 210.003C916.163 210.003 930.353 223.027 930.353 250.435V293.395C930.353 303.697 932.297 310.306 935.796 313.999H914.025C911.109 311.278 910.332 306.613 909.943 302.336ZM908.777 285.036V264.82C904.5 266.569 895.558 268.708 885.839 270.263C875.731 272.012 865.429 274.733 865.623 286.591C865.623 296.505 872.815 300.198 881.757 300.198C893.42 300.198 904.111 291.839 908.777 285.036Z" fill="#EEEEEE"/>
<path d="M764.459 314H742.882V174.042H764.459V226.332C770.679 215.252 780.204 210.003 793.422 210.003C821.414 210.003 828.995 227.887 828.995 251.991V314H807.418V252.768C807.418 237.412 802.17 228.276 788.368 228.276C774.567 228.276 764.459 238.967 764.459 258.989V314Z" fill="#EEEEEE"/>
<path d="M615.523 269.291L637.878 267.736C639.433 288.146 652.651 297.283 672.673 297.283C690.168 297.283 701.636 289.313 701.636 275.706C701.636 266.958 697.554 260.932 686.474 256.85C679.088 254.129 657.511 248.88 649.152 246.159C624.271 238.384 620.189 224.971 620.189 211.753C620.189 184.344 644.487 171.126 668.785 171.126C700.47 171.126 719.326 184.927 721.269 214.085L698.526 215.446C696.777 200.284 688.224 190.759 669.563 190.759C655.567 190.759 642.349 196.979 642.349 210.003C642.349 216.612 645.653 221.666 653.04 224.388C659.455 226.915 677.727 232.163 691.14 235.857C711.55 241.688 725.74 252.574 725.74 274.734C725.74 303.503 698.721 316.916 673.451 316.916C637.489 316.916 617.662 300.393 615.523 269.291Z" fill="#EEEEEE"/>
<path d="M550.774 295.921L552.718 313.611C548.831 314.971 541.444 315.943 537.751 315.943C516.562 315.943 512.092 304.28 512.092 284.453V229.83H497.707V212.919H512.092V188.426L533.668 180.067V212.919H551.552V229.83H533.668V282.12C533.668 290.867 533.668 297.088 542.805 297.088C544.748 297.088 547.664 296.893 550.774 295.921Z" fill="#EEEEEE"/>
<path d="M491.326 269.291H418.626C419.986 289.896 432.038 299.032 446.034 299.032C457.114 299.032 466.833 292.228 469.749 280.176L490.16 284.453C483.745 306.03 467.611 316.915 444.673 316.915C417.459 316.915 397.049 298.254 397.049 263.459C397.049 228.664 417.459 210.003 444.673 210.003C473.443 210.003 491.52 229.83 491.52 260.738C491.52 263.265 491.52 268.319 491.326 269.291ZM444.479 228.081C433.205 228.081 421.736 236.051 419.209 253.351H469.166C468.389 238.383 459.058 228.081 444.479 228.081Z" fill="#EEEEEE"/>
<path d="M351.654 313.999H330.077V212.919H349.905V230.413C356.319 216.806 364.289 210.003 377.507 210.003C385.283 210.003 390.726 211.558 395.391 215.251L390.531 234.496C386.644 231.969 382.756 230.219 376.73 230.219C360.013 230.219 351.654 243.243 351.654 262.876V313.999Z" fill="#EEEEEE"/>
<path d="M246.822 263.459C246.822 287.952 257.902 299.032 272.287 299.032C283.172 299.032 291.725 292.811 294.835 278.232L315.829 282.315C310.386 305.446 294.058 316.915 272.287 316.915C244.878 316.915 225.245 298.254 225.245 263.459C225.245 228.664 244.878 210.003 272.287 210.003C294.058 210.003 310.386 221.666 315.829 244.798L294.835 248.88C291.725 234.107 283.172 228.081 272.287 228.081C258.096 228.081 246.822 238.966 246.822 263.459Z" fill="#EEEEEE"/>
<path d="M216.725 269.291H144.025C145.386 289.896 157.438 299.032 171.434 299.032C182.514 299.032 192.233 292.228 195.149 280.176L215.559 284.453C209.144 306.03 193.01 316.915 170.073 316.915C142.859 316.915 122.448 298.254 122.448 263.459C122.448 228.664 142.859 210.003 170.073 210.003C198.842 210.003 216.92 229.83 216.92 260.738C216.92 263.265 216.92 268.319 216.725 269.291ZM169.878 228.081C158.604 228.081 147.135 236.051 144.608 253.351H194.565C193.788 238.383 184.457 228.081 169.878 228.081Z" fill="#EEEEEE"/>
<path d="M0.921875 269.291L23.2763 267.736C24.8314 288.146 38.0496 297.283 58.0714 297.283C75.5661 297.283 87.0349 289.313 87.0349 275.706C87.0349 266.958 82.9528 260.932 71.8728 256.85C64.4861 254.129 42.9093 248.88 34.5507 246.159C9.66925 238.384 5.58714 224.971 5.58714 211.753C5.58714 184.344 29.8854 171.126 54.1837 171.126C85.8686 171.126 104.724 184.927 106.668 214.085L83.9247 215.446C82.1753 200.284 73.6223 190.759 54.9612 190.759C40.9654 190.759 27.7472 196.979 27.7472 210.003C27.7472 216.612 31.0517 221.666 38.4384 224.388C44.8531 226.915 63.1254 232.163 76.5381 235.857C96.9486 241.688 111.139 252.574 111.139 274.734C111.139 303.503 84.1191 316.916 58.8489 316.916C22.8875 316.916 3.06012 300.393 0.921875 269.291Z" fill="#EEEEEE"/>
<path d="M1187.51 98.2907H1114.81C1116.17 118.896 1128.22 128.032 1142.22 128.032C1153.3 128.032 1163.02 121.228 1165.93 109.176L1186.34 113.453C1179.93 135.03 1163.79 145.915 1140.86 145.915C1113.64 145.915 1093.23 127.254 1093.23 92.4591C1093.23 57.664 1113.64 39.0029 1140.86 39.0029C1169.63 39.0029 1187.7 58.8303 1187.7 89.7377C1187.7 92.2647 1187.7 97.3188 1187.51 98.2907ZM1140.66 57.0808C1129.39 57.0808 1117.92 65.0507 1115.39 82.351H1165.35C1164.57 67.3833 1155.24 57.0808 1140.66 57.0808Z" fill="#EEEEEE"/>
<path d="M1015.81 92.4591C1015.81 116.952 1026.89 128.032 1041.27 128.032C1052.16 128.032 1060.71 121.811 1063.82 107.232L1084.82 111.315C1079.37 134.447 1063.04 145.915 1041.27 145.915C1013.86 145.915 994.231 127.254 994.231 92.4591C994.231 57.664 1013.86 39.0029 1041.27 39.0029C1063.04 39.0029 1079.37 50.6661 1084.82 73.798L1063.82 77.8801C1060.71 63.1068 1052.16 57.0808 1041.27 57.0808C1027.08 57.0808 1015.81 67.9665 1015.81 92.4591Z" fill="#EEEEEE"/>
<path d="M948.837 142.999H927.26V41.9187H947.087V59.4135C953.502 45.8064 961.472 39.0029 974.69 39.0029C982.465 39.0029 987.908 40.558 992.573 44.2514L987.714 63.4956C983.826 60.9686 979.938 59.2191 973.912 59.2191C957.195 59.2191 948.837 72.243 948.837 91.8759V142.999Z" fill="#EEEEEE"/>
<path d="M885.772 41.9189H907.348V143H887.521V128.421C880.134 139.89 870.026 145.915 856.808 145.915C828.816 145.915 821.235 128.032 821.235 103.928V41.9189H842.812V103.151C842.812 118.701 848.061 127.838 861.862 127.838C875.858 127.838 885.772 117.146 885.772 96.9302V41.9189Z" fill="#EEEEEE"/>
<path d="M710.709 92.4591C710.709 57.664 731.314 39.0029 759.111 39.0029C786.714 39.0029 807.319 57.664 807.319 92.4591C807.319 127.254 786.714 145.915 759.111 145.915C731.314 145.915 710.709 127.254 710.709 92.4591ZM732.286 92.4591C732.286 116.952 744.338 128.032 759.111 128.032C773.69 128.032 785.742 116.952 785.742 92.4591C785.742 67.9665 773.69 57.0808 759.111 57.0808C744.338 57.0808 732.286 67.9665 732.286 92.4591Z" fill="#EEEEEE"/>
<path d="M589.183 98.2909L611.537 96.7359C613.092 117.146 626.31 126.283 646.332 126.283C663.827 126.283 675.296 118.313 675.296 104.706C675.296 95.9583 671.214 89.9323 660.134 85.8502C652.747 83.1288 631.17 77.8804 622.811 75.159C597.93 67.3836 593.848 53.9709 593.848 40.7527C593.848 13.3442 618.146 0.125977 642.444 0.125977C674.129 0.125977 692.985 13.9274 694.929 43.0853L672.185 44.446C670.436 29.2839 661.883 19.759 643.222 19.759C629.226 19.759 616.008 25.9793 616.008 39.0032C616.008 45.6123 619.312 50.6664 626.699 53.3878C633.114 55.9148 651.386 61.1632 664.799 64.8565C685.209 70.6881 699.4 81.5737 699.4 103.734C699.4 132.503 672.38 145.916 647.11 145.916C611.148 145.916 591.321 129.393 589.183 98.2909Z" fill="#EEEEEE"/>
<path d="M457.632 142.999H436.055V41.9187H455.882V56.4977C463.269 44.057 473.377 39.0029 486.595 39.0029C514.587 39.0029 522.168 56.8864 522.168 80.9903V142.999H500.591V81.7679C500.591 66.4114 495.342 57.2752 481.541 57.2752C467.74 57.2752 457.632 67.9665 457.632 87.9882V142.999Z" fill="#EEEEEE"/>
<path d="M421.704 98.2907H349.004C350.364 118.896 362.416 128.032 376.412 128.032C387.492 128.032 397.211 121.228 400.127 109.176L420.538 113.453C414.123 135.03 397.989 145.915 375.051 145.915C347.837 145.915 327.427 127.254 327.427 92.4591C327.427 57.664 347.837 39.0029 375.051 39.0029C403.821 39.0029 421.898 58.8303 421.898 89.7377C421.898 92.2647 421.898 97.3188 421.704 98.2907ZM374.857 57.0808C363.583 57.0808 352.114 65.0507 349.587 82.351H399.544C398.766 67.3833 389.436 57.0808 374.857 57.0808Z" fill="#EEEEEE"/>
<path d="M249.95 181.877H228.373V41.9187H248.006V55.137C253.838 45.4177 263.168 39.0029 275.998 39.0029C302.629 39.0029 319.346 59.6079 319.346 92.4591C319.346 125.31 302.24 145.915 275.609 145.915C264.918 145.915 255.781 141.444 249.95 133.086V181.877ZM247.812 92.4591C247.812 116.174 258.697 128.032 273.082 128.032C287.466 128.032 297.769 116.174 297.769 92.4591C297.769 68.9384 287.272 57.0808 273.276 57.0808C260.447 57.0808 247.812 68.9384 247.812 92.4591Z" fill="#EEEEEE"/>
<path d="M78.0508 73.0208C78.0508 32.1997 101.96 0.125977 144.725 0.125977C187.296 0.125977 211.205 32.1997 211.205 73.0208C211.205 114.036 187.296 145.916 144.725 145.916C101.96 145.916 78.0508 114.036 78.0508 73.0208ZM101.96 73.0208C101.96 104.123 117.122 126.283 144.725 126.283C170.967 126.283 187.49 104.123 187.49 73.0208C187.49 41.919 170.967 19.759 144.725 19.759C118.289 19.759 101.96 41.919 101.96 73.0208Z" fill="#EEEEEE"/>
</svg>
